 ,X,Y
1,3.481,6.233
2,4.511,5.636
3,4.051,0.414
4,4.954,5.100
5,4.456,3.720
6,5.523,4.158
7,3.887,4.793
8,4.680,4.421
9,8.282,2.056
10,7.395,2.029
11,6.147,2.023
12,7.390,1.886
13,8.200,1.952
14,6.760,2.795
15,7.406,2.532
16,5.802,2.138
17,5.460,1.080
18,5.217,0.830
19,3.191,4.136
20,3.640,2.417
21,4.357,1.158
22,5.633,1.848
23,5.573,2.614
24,3.219,4.437
25,3.596,2.915
26,4.390,2.324
27,5.950,1.563
28,5.594,2.248
29,6.788,2.438
30,4.418,3.479
31,3.498,3.879
32,3.684,2.817
33,4.144,1.875
34,6.284,1.388
35,4.806,2.735
36,2.983,5.067
37,2.420,3.622
38,3.317,5.669
39,3.793,5.390
40,2.929,1.240
