Mgrand01, 7.74, 12.111, 10.192, 10.508, 6.421, 1.549, 10.192, 9.966, 9.638, 7.403, 11.511, 8.265, 8.553, 9.214, 10.007, 8.66, 13.815, 4.396, 12.398, 4.494, 10.697, 4.322, 12.374, 3.866, 13.877, 4.014, 12.706, 7.538, 12.201, 7.169, 12.682, 5.123, 9.995, 4.519, 9.736, 1.857, 9.514, 1.327, 6.852, 9.165, 5.977, 5.271, 9.416, 4.285, 9.49, 7.144, 7.419, 7.883, 7.345, 4.852, 10.956, 2.695, 9.292, 6.01, 7.555, 8.302, 8.516, 5.209, 10.439, 2.793, 9.539, 4.556, 11.56, 5.098, 7.444, 10.447, 5.608, 8.783, 7.937, 10.533, 7.752, 8.549, 6.433, 8.758, 5.669, 3.41

Mgrand02, 4.763, 10.886, 7.826, 9.164, 4.796, 1.137, 8.106, 8.56, 7.614, 6.078, 9.19, 7.04, 6.395, 7.677, 7.781, 7.252, 11.348, 3.641, 9.939, 3.675, 8.34, 3.417, 9.961, 3.071, 11.538, 3.216, 10.42, 6.022, 9.537, 5.922, 10.364, 4.245, 7.871, 3.227, 7.893, 1.383, 7.424, 0.913, 5.031, 7.833, 4.282, 4.714, 7.67, 2.937, 7.513, 5.53, 5.478, 6.637, 5.489, 4.077, 8.866, 1.662, 7.066, 5.407, 5.266, 7.912, 6.183, 4.647, 8.575, 2.188, 7.871, 3.484, 9.592, 4.043, 5.255, 8.795, 3.477, 6.771, 5.825, 8.84, 5.601, 7.14, 4.282, 6.637, 3.723, 3.048

Mgrand03, 5.709, 10.253, 7.293, 8.967, 4.146, 1.426, 7.283, 8.329, 6.872, 6.014, 8.435, 6.94, 5.822, 7.393, 7.057, 7.105, 10.318, 3.299, 9.073, 3.546, 7.798, 3.535, 9.053, 2.856, 10.534, 2.486, 9.454, 6.025, 8.693, 5.86, 9.413, 4.029, 7.551, 3.669, 6.872, 1.581, 6.501, 1.18, 4.485, 7.804, 3.837, 4.687, 7.067, 2.959, 6.594, 5.634, 4.938, 6.837, 4.763, 4.122, 7.808, 1.694, 6.512, 5.181, 4.814, 7.774, 5.792, 4.441, 7.417, 2.393, 7.047, 3.576, 8.672, 4.297, 4.763, 8.73, 3.24, 7.012, 5.061, 8.669, 5.288, 7.249, 3.837, 7.146, 3.436, 3.618

Mgrand04, 4.832, 10.403, 7.243, 9.012, 4.585, 1.223, 7.563, 8.425, 6.934, 6.065, 8.572, 6.725, 5.945, 7.755, 7.233, 7.147, 10.674, 3.901, 9.51, 3.871, 8.17, 3.665, 9.53, 3.283, 10.921, 3.572, 9.737, 6.189, 9.087, 5.962, 9.973, 4.478, 7.49, 3.201, 7.645, 1.48, 7.346, 1.078, 4.667, 7.734, 4.07, 4.396, 7.356, 2.974, 6.512, 5.725, 4.966, 6.755, 5.162, 4.19, 8.48, 2.109, 6.656, 5.231, 4.946, 8.064, 5.904, 4.633, 8.181, 2.449, 7.429, 3.52, 9.19, 4.324, 5.049, 8.466, 3.297, 6.56, 5.45, 8.651, 5.512, 7.065, 4.101, 6.498, 3.915, 2.82

Mgrand05, 6.186, 11.006, 8.609, 9.427, 5.84, 1.283, 8.858, 8.897, 8.306, 6.669, 9.95, 7.47, 7.354, 8.194, 8.566, 7.697, 12.21, 4.182, 10.793, 4.117, 9.355, 3.674, 10.934, 3.436, 12.524, 3.76, 10.988, 6.853, 10.22, 6.399, 11.486, 4.712, 8.803, 3.706, 8.825, 1.727, 8.414, 1.24, 5.743, 8.259, 5.213, 4.647, 8.717, 3.198, 8.025, 6.118, 6.067, 7.156, 6.284, 4.301, 9.842, 2.224, 7.971, 5.253, 6.046, 8.324, 7.03, 4.787, 9.69, 2.538, 8.793, 3.911, 10.393, 4.582, 5.959, 8.93, 4.467, 7.102, 6.64, 9.33, 6.251, 7.772, 5.007, 7.015, 4.769, 3.382

Mgrand06, 4.044, 8.877, 5.89, 7.652, 3.63, 1.177, 6.151, 7.166, 5.674, 4.969, 7.259, 5.833, 4.755, 6.229, 5.926, 5.959, 8.835, 3.113, 7.773, 3.176, 6.674, 2.852, 8.025, 2.411, 9.087, 2.537, 8.16, 5.068, 7.484, 4.86, 8.223, 3.509, 6.286, 2.978, 6.088, 1.24, 5.719, 0.997, 3.747, 6.527, 3.161, 3.816, 6.052, 2.654, 5.836, 4.653, 4.008, 5.671, 4.215, 3.329, 7.142, 1.474, 5.422, 4.275, 3.909, 6.788, 4.809, 3.879, 6.746, 1.897, 6.079, 2.96, 7.403, 3.654, 3.882, 7.103, 2.531, 5.5, 4.269, 7.175, 4.035, 5.95, 3.116, 5.329, 2.909, 2.6

Mgrand07, 4.802, 9.71, 7.209, 8.384, 5.333, 0.94, 7.67, 7.726, 7.277, 5.487, 8.858, 6.469, 6.207, 6.812, 7.503, 6.528, 10.911, 3.414, 9.86, 3.385, 8.446, 3.208, 9.929, 2.462, 11.324, 2.58, 9.988, 5.408, 9.153, 4.927, 10.145, 3.876, 8.083, 3.228, 7.886, 1.244, 7.562, 0.861, 5.127, 7.127, 4.616, 4.259, 7.916, 2.923, 7.159, 5.113, 5.451, 6.272, 5.667, 3.896, 8.917, 1.509, 7.209, 4.642, 5.421, 7.303, 6.256, 4.279, 8.711, 1.931, 7.709, 3.247, 9.566, 3.866, 5.205, 7.696, 3.624, 5.968, 5.775, 7.981, 5.598, 6.498, 4.626, 6.204, 4.41, 2.707

Mgrand08, 7.397, 12.077, 9.535, 11.08, 7.241, 1.149, 9.727, 10.443, 9.415, 7.693, 11.072, 9.014, 8.046, 9.134, 9.619, 8.882, 15.311, 5.34, 13.245, 5.22, 11.024, 4.595, 13.498, 4.367, 15.515, 5.016, 13.137, 8.174, 11.876, 7.681, 14.134, 5.892, 10.748, 4.727, 10.892, 2.013, 10.628, 1.305, 6.593, 9.495, 6.136, 5.004, 10.471, 4.019, 9.439, 7.285, 6.989, 8.126, 7.481, 4.763, 11.924, 2.554, 9.487, 6.216, 6.833, 9.795, 8.454, 5.448, 11.216, 3.478, 10.507, 4.691, 12.633, 5.688, 6.389, 9.723, 4.911, 6.757, 7.205, 10.155, 7.181, 8.534, 5.56, 7.201, 5.812, 3.683

Mgrand09, 7.65, 4.379, 8.127, 4.211, 7.576, 2.239, 8.259, 4.065, 8.12, 3.063, 8.726, 3.491, 7.614, 3.619, 8.17, 3.52, 9.425, 3.092, 9.054, 3.088, 8.687, 2.921, 9.083, 2.917, 9.468, 2.963, 9.116, 3.501, 8.901, 3.366, 9.193, 3.202, 8.477, 2.835, 8.537, 2.482, 8.43, 2.343, 7.329, 3.719, 7.514, 2.799, 8.48, 2.689, 8.117, 3.002, 7.546, 3.27, 7.643, 2.866, 8.676, 2.581, 8.02, 2.931, 7.372, 3.783, 7.857, 2.792, 8.63, 2.689, 8.402, 2.902, 8.933, 3.145, 7.307, 3.751, 7.047, 3.331, 7.536, 3.883, 7.511, 3.334, 7.311, 3.295, 7.354, 2.603

Mgrand10, 6.108, 4.794, 6.581, 4.642, 6.362, 3.2, 6.878, 4.452, 6.817, 3.689, 7.247, 4.037, 6.445, 4.085, 6.846, 4.042, 7.729, 3.745, 7.512, 3.735, 7.266, 3.654, 7.488, 3.638, 7.745, 3.652, 7.467, 4.072, 7.32, 3.941, 7.502, 3.868, 7.21, 3.66, 7.175, 3.451, 7.068, 3.333, 6.284, 4.053, 6.354, 3.606, 7.154, 3.526, 6.747, 3.692, 6.381, 3.887, 6.546, 3.582, 7.261, 3.47, 6.774, 3.62, 6.314, 4.123, 6.653, 3.561, 7.223, 3.499, 7.146, 3.606, 7.386, 3.794, 6.188, 4.291, 6.038, 3.925, 6.367, 4.567, 6.332, 4.01, 6.191, 3.981, 6.268, 3.489

Mgrand11, 4.32, 5.095, 4.779, 4.801, 3.595, 1.642, 4.803, 4.701, 4.691, 2.998, 5.64, 3.711, 3.889, 3.923, 4.762, 3.775, 6.347, 2.473, 5.781, 2.514, 5.245, 2.391, 5.722, 2.32, 6.37, 2.338, 6.099, 3.292, 5.64, 3.145, 5.999, 2.774, 4.991, 2.579, 4.838, 1.731, 4.791, 1.542, 3.489, 4.111, 3.318, 3.051, 4.797, 2.29, 4.272, 3.133, 3.612, 3.61, 3.713, 2.827, 5.209, 1.884, 4.378, 2.874, 3.571, 3.775, 4.119, 2.756, 5.015, 2.114, 4.868, 2.585, 5.675, 2.78, 3.459, 4.388, 2.964, 3.369, 3.878, 4.618, 3.654, 3.687, 3.276, 3.84, 3.241, 2.249

Mgrand12, 5.023, 5.907, 5.813, 5.512, 4.987, 2.334, 5.961, 5.355, 5.763, 3.779, 6.656, 4.533, 5.094, 4.628, 5.925, 4.547, 7.5, 3.613, 7.024, 3.568, 6.499, 3.447, 6.966, 3.353, 7.491, 3.407, 7.105, 4.363, 6.876, 4.277, 7.065, 3.905, 6.342, 3.425, 6.172, 2.837, 6.041, 2.648, 4.785, 4.47, 5.027, 3.357, 6.23, 3.312, 5.615, 3.766, 4.874, 4.277, 5.153, 3.496, 6.567, 2.953, 5.727, 3.663, 4.78, 4.542, 5.489, 3.505, 6.463, 3.052, 6.261, 3.434, 6.876, 3.842, 4.619, 4.915, 4.228, 4.075, 4.96, 5.216, 4.946, 4.376, 4.601, 4.174, 4.61, 2.895

Mgrand13, 4.922, 7.57, 6.433, 6.945, 4.913, 1.061, 6.77, 6.236, 6.315, 4.032, 7.741, 4.986, 5.462, 5.375, 6.61, 5.155, 10.037, 3.399, 8.822, 2.986, 7.691, 2.53, 8.83, 2.673, 10.021, 3.053, 9.033, 5.105, 8.256, 4.294, 9.05, 3.796, 7.184, 2.901, 7.277, 1.626, 7.285, 1.247, 4.552, 5.042, 4.661, 3.043, 7.105, 2.673, 6.927, 3.755, 4.784, 4.761, 5.161, 3.317, 8.33, 2.057, 6.27, 3.734, 4.682, 5.322, 5.758, 3.57, 7.961, 2.112, 7.53, 3.111, 8.701, 3.686, 4.456, 5.507, 3.682, 3.796, 4.99, 6.15, 4.866, 5.076, 4.257, 4.186, 4.394, 2.359

Mgrand14, 4.455, 7.056, 5.578, 6.578, 4.305, 0.744, 5.923, 5.951, 5.374, 3.855, 6.921, 4.721, 4.419, 5.216, 5.738, 4.9, 8.819, 2.977, 7.727, 2.911, 6.634, 2.691, 7.733, 2.446, 8.819, 2.619, 8.025, 4.786, 7.309, 4.374, 7.966, 3.598, 6.347, 2.768, 6.15, 1.365, 5.989, 1.013, 3.678, 5.163, 3.851, 2.732, 6.12, 2.404, 6.174, 3.503, 4.007, 4.5, 4.413, 2.864, 7.189, 1.669, 5.697, 3.204, 3.768, 5.384, 5.565, 2.923, 6.903, 1.873, 6.204, 2.726, 7.428, 3.652, 3.625, 5.778, 2.932, 4.249, 4.054, 5.981, 3.989, 4.643, 3.433, 4.213, 3.642, 2.237

Mgrand15, 8.741, 7.806, 9.554, 7.314, 8.368, 1.563, 10.292, 6.919, 9.822, 4.644, 11.225, 5.583, 8.972, 5.979, 10.117, 5.714, 12.262, 3.98, 11.575, 3.741, 10.509, 3.457, 11.389, 3.45, 12.347, 3.789, 11.512, 5.393, 11.374, 5.031, 11.605, 4.33, 10.158, 3.54, 10.218, 2.361, 10.165, 2.1, 8.263, 5.792, 8.315, 3.666, 10.113, 3.181, 9.957, 4.45, 8.405, 5.472, 8.636, 3.987, 10.911, 2.756, 9.696, 4.047, 8.383, 6.203, 9.3, 3.637, 10.479, 2.704, 10.039, 3.674, 11.374, 4.368, 8.189, 6.292, 7.592, 5.345, 8.815, 6.732, 8.42, 5.651, 7.972, 5.285, 7.987, 3.04

Mgrand16, 11.364, 8.475, 12.508, 8.105, 11.566, 3.158, 12.912, 7.662, 12.778, 5.396, 14.079, 6.293, 11.551, 6.563, 12.852, 6.51, 15.463, 5.104, 14.595, 4.932, 13.615, 4.588, 14.483, 4.7, 15.373, 4.917, 14.528, 6.533, 14.154, 5.785, 14.685, 5.463, 13.256, 4.7, 13.398, 3.736, 13.316, 3.519, 10.96, 6.376, 11.252, 4.887, 13.107, 4.506, 12.927, 5.202, 11.319, 6.204, 11.648, 5.089, 13.929, 4.072, 12.748, 5.134, 11.02, 6.705, 12.299, 4.671, 13.63, 4.065, 13.189, 4.835, 14.356, 5.441, 10.93, 7.034, 10.459, 6.219, 11.342, 7.258, 11.177, 6.458, 10.878, 6.151, 11.215, 4.207

Mgrand17, 6.954, 7.82, 7.946, 7.367, 6.707, 2.814, 8.441, 7.048, 8.158, 5.101, 9.319, 5.951, 7.223, 6.262, 8.285, 6.057, 10.565, 4.167, 9.779, 4.06, 8.887, 3.919, 9.617, 3.798, 10.438, 3.77, 9.772, 5.618, 9.418, 5.321, 10.041, 4.683, 8.71, 4.181, 8.477, 3.09, 8.201, 2.843, 6.53, 6.121, 6.544, 4.627, 8.441, 3.961, 8.296, 4.88, 6.756, 5.788, 6.926, 4.754, 9.022, 3.154, 8.087, 4.57, 6.565, 6.326, 7.634, 4.167, 8.717, 3.31, 8.406, 4.322, 9.556, 4.668, 6.565, 6.772, 5.949, 5.986, 7.153, 7.041, 6.77, 6.007, 6.395, 5.887, 6.353, 3.869

Mgrand18, 7.077, 6.424, 7.488, 6.231, 6.571, 3.779, 7.695, 5.791, 7.452, 4.681, 8.248, 5.172, 6.961, 5.36, 7.574, 5.203, 8.947, 4.448, 8.471, 4.397, 7.979, 4.286, 8.435, 4.286, 8.932, 4.347, 8.547, 5.213, 8.44, 4.884, 8.607, 4.691, 7.863, 4.352, 7.706, 3.886, 7.65, 3.784, 6.469, 5.406, 6.535, 4.478, 7.695, 4.311, 7.609, 4.549, 6.647, 5.172, 6.849, 4.453, 8.141, 3.997, 7.452, 4.529, 6.54, 5.517, 7.062, 4.286, 7.918, 4.043, 7.655, 4.392, 8.354, 4.625, 6.49, 5.679, 6.095, 5.122, 6.718, 5.699, 6.601, 5.233, 6.328, 5.071, 6.424, 4.326

Mgrand19, 0.814, 1.754, 1.067, 1.648, 0.899, 0.551, 1.248, 1.574, 1.217, 1.022, 1.484, 1.26, 0.938, 1.27, 1.226, 1.266, 1.895, 1.063, 1.732, 1.033, 1.495, 0.964, 1.703, 0.97, 1.879, 0.956, 1.66, 1.332, 1.631, 1.198, 1.773, 1.132, 1.478, 0.995, 1.403, 0.774, 1.373, 0.714, 0.823, 1.177, 0.93, 0.873, 1.418, 0.904, 1.298, 0.964, 0.848, 1.185, 0.955, 0.956, 1.596, 0.861, 1.166, 0.975, 0.785, 1.343, 1.052, 0.848, 1.528, 0.848, 1.41, 0.944, 1.618, 1.097, 0.734, 1.434, 0.562, 1.196, 0.86, 1.479, 0.823, 1.27, 0.715, 1.241, 0.767, 0.861

Mgrand20, 0.814, 1.687, 0.965, 1.623, 0.798, 0.718, 1.143, 1.493, 1.078, 1.039, 1.327, 1.239, 0.897, 1.324, 1.113, 1.275, 1.702, 1.122, 1.583, 1.116, 1.458, 1.073, 1.591, 1.065, 1.702, 1.071, 1.494, 1.344, 1.428, 1.211, 1.597, 1.192, 1.359, 1.079, 1.264, 0.869, 1.252, 0.827, 0.816, 1.096, 0.893, 0.9, 1.27, 0.995, 1.206, 1.029, 0.846, 1.146, 0.907, 1.015, 1.375, 0.958, 1.135, 1.009, 0.777, 1.231, 0.998, 0.938, 1.343, 0.962, 1.27, 1.025, 1.43, 1.128, 0.713, 1.413, 0.58, 1.245, 0.828, 1.429, 0.784, 1.253, 0.685, 1.245, 0.737, 0.932

Mgrand21, 1.558, 2.929, 2.205, 2.702, 1.579, 0.656, 2.391, 2.454, 2.202, 1.489, 2.878, 1.89, 1.697, 2.014, 2.287, 1.958, 3.444, 1.329, 3.134, 1.323, 2.754, 1.214, 3.111, 1.241, 3.424, 1.25, 3.143, 1.902, 3.034, 1.675, 3.223, 1.48, 2.553, 1.261, 2.547, 0.866, 2.453, 0.721, 1.406, 1.641, 1.564, 1.167, 2.538, 1.126, 2.338, 1.344, 1.544, 1.76, 1.718, 1.323, 2.887, 1.034, 2.237, 1.306, 1.375, 1.917, 1.952, 1.222, 2.709, 1.01, 2.515, 1.27, 2.935, 1.435, 1.408, 2.244, 1.151, 1.846, 1.6, 2.28, 1.499, 1.869, 1.343, 1.822, 1.443, 1.084